TweetClassifier	06.06.15 12:11:35	Start reading tweets from 'data/train_random.csv'
TweetClassifier	06.06.15 12:11:44	Finish reading 50000 tweets after '9 s '
TweetClassifier	06.06.15 12:11:45	Train set:	50000 tweets	224237 different bigrams
TweetClassifier	06.06.15 12:11:45	Start training...
TweetClassifier	06.06.15 16:44:49	Finish training after 4 h 33 min 4 s 
main           	06.06.15 16:44:51	Test with test set from data/test.csv
TweetClassifier	06.06.15 16:51:24	Accuracy:	70.29%
