TweetClassifier	07.06.15 03:20:34	Start reading tweets from 'data/train_random.csv'
TweetClassifier	07.06.15 03:20:43	Finish reading 50000 tweets after '8 s '
TweetClassifier	07.06.15 03:20:43	Train set:	50000 tweets	202462 different bigrams
TweetClassifier	07.06.15 03:20:43	Start training...
TweetClassifier	07.06.15 07:24:01	Finish training after 4 h 3 min 17 s 
main           	07.06.15 07:24:03	Test with test set from data/test.csv
TweetClassifier	07.06.15 07:29:00	Accuracy:	72.00%
